\relax 
\providecommand\hyper@newdestlabel[2]{}
\providecommand*\new@tpo@label[2]{}
\providecommand\babel@aux[2]{}
\@nameuse{bbl@beforestart}
\providecommand\HyperFirstAtBeginDocument{\AtBeginDocument}
\HyperFirstAtBeginDocument{\ifx\hyper@anchor\@undefined
\global\let\oldcontentsline\contentsline
\gdef\contentsline#1#2#3#4{\oldcontentsline{#1}{#2}{#3}}
\global\let\oldnewlabel\newlabel
\gdef\newlabel#1#2{\newlabelxx{#1}#2}
\gdef\newlabelxx#1#2#3#4#5#6{\oldnewlabel{#1}{{#2}{#3}}}
\AtEndDocument{\ifx\hyper@anchor\@undefined
\let\contentsline\oldcontentsline
\let\newlabel\oldnewlabel
\fi}
\fi}
\global\let\hyper@last\relax 
\gdef\HyperFirstAtBeginDocument#1{#1}
\providecommand\HyField@AuxAddToFields[1]{}
\providecommand\HyField@AuxAddToCoFields[2]{}
\providecommand\BKM@entry[2]{}
\babel@aux{english}{}
\@writefile{toc}{\contentsline {paragraph}{\nonumberline Summary}{1}{paragraph*.2}\protected@file@percent }
\@writefile{toc}{\contentsline {paragraph}{\nonumberline Procedure}{1}{paragraph*.4}\protected@file@percent }
\@writefile{lof}{\contentsline {figure}{\numberline {1}{\ignorespaces Sketch for the membrane module I drew}}{1}{figure.1}\protected@file@percent }
\@writefile{lof}{\contentsline {figure}{\numberline {2}{\ignorespaces Sketch with the red box}}{2}{figure.2}\protected@file@percent }
\@writefile{lof}{\contentsline {figure}{\numberline {3}{\ignorespaces Sketch I drew for the BET isotherm}}{5}{figure.3}\protected@file@percent }
\pgfsyspdfmark {pgfid4}{15843041}{18461301}
\pgfsyspdfmark {pgfid5}{15540204}{11566366}
\pgfsyspdfmark {pgfid6}{15470433}{44520368}
\newlabel{eq:S0}{{17}{6}{Procedure}{equation.0.17}{}}
\pgfsyspdfmark {pgfid7}{15470433}{26643031}
\newlabel{eq:S1}{{20}{6}{Procedure}{equation.0.20}{}}
\newlabel{eq:sum}{{27}{7}{Procedure}{equation.0.27}{}}
\gdef \@abspage@last{9}
