\relax 
\providecommand\zref@newlabel[2]{}
\providecommand\babel@aux[2]{}
\@nameuse{bbl@beforestart}
\catcode `"\active 
\babel@aux{ngerman}{}
\@writefile{toc}{\contentsline {paragraph}{Kurze Beschreibung der Prüfungsatmosphäre/Situation in 3 Sätzen:}{1}{}\protected@file@percent }
\@writefile{toc}{\contentsline {paragraph}{Im folgenden werden diese Abkürzungen verwendet:}{1}{}\protected@file@percent }
\@writefile{toc}{\contentsline {paragraph}{Quelltext dieses Protokolls inkl. aller Grafiken:}{1}{}\protected@file@percent }
\@writefile{lot}{\contentsline {table}{\numberline {1}{\ignorespaces Sketch of the selection matrix at this state. \enquote {SC Haber} means \enquote {Small-Scale Haber} and \enquote {EC} means {Electrochemically Produced}\relax }}{2}{}\protected@file@percent }
\gdef \@abspage@last{2}
